<svg xmlns="http://www.w3.org/2000/svg" id="svg" width="100%" height="100%" version="1.1" viewBox="0 0 22 22">
 <defs id="defs81">
  <style id="current-color-scheme" type="text/css">
   .ColorScheme-Text { color:#d3dae3; } .ColorScheme-Highlight { color:#3497da; } .ColorScheme-ButtonBackground { color:#d3dae3; }
  </style>
 </defs>
 <g id="konversation">
  <rect id="123" width="22" height="22" x="0" y="0" style="fill:currentColor;fill-opacity:1;stroke:none;opacity:0.001"/>
  <path id="path4149" class="ColorScheme-Text" d="m 11.017578,2.9999998 c -3.8927567,0 -7.1292384,2.5954036 -7.8339844,6.0273438 C 3.0634421,9.5451768 3.001618,10.07352 2.9999998,10.603516 c 0.00301,2.277538 1.1074093,4.428902 3,5.849609 l 0,3.546875 2.3320313,-2.332031 c 0.8506413,0.28219 1.7459059,0.434814 2.6503909,0.435547 3.834528,-0.0024 7.123954,-2.56687 7.835937,-6.107422 C 18.935165,11.490386 19,10.965932 19,10.427734 19,6.3250487 15.425632,2.9999998 11.017578,2.9999998 Z" style="opacity:1;fill:currentColor;fill-opacity:1"/>
 </g>
</svg>
